^C:\USERS\SUGAR\SOURCE\REPOS\GAME_2.0\GAME_2.0\CONFIGURATION.CPP|C:\USERS\SUGAR\SOURCE\REPOS\GAME_2.0\GAME_2.0\GAMEPROCESS.CPP|C:\USERS\SUGAR\SOURCE\REPOS\GAME_2.0\GAME_2.0\MAIN.CPP
C:\USERS\SUGAR\SOURCE\REPOS\GAME_2.0\GAME_2.0\DEBUG\VC142.PDB
C:\USERS\SUGAR\SOURCE\REPOS\GAME_2.0\GAME_2.0\DEBUG\VC142.IDB
C:\USERS\SUGAR\SOURCE\REPOS\GAME_2.0\GAME_2.0\DEBUG\MAIN.OBJ
C:\USERS\SUGAR\SOURCE\REPOS\GAME_2.0\GAME_2.0\DEBUG\GAMEPROCESS.OBJ
C:\USERS\SUGAR\SOURCE\REPOS\GAME_2.0\GAME_2.0\DEBUG\CONFIGURATION.OBJ
^C:\USERS\SUGAR\SOURCE\REPOS\GAME_2.0\GAME_2.0\GAMEPROCESS.CPP|C:\USERS\SUGAR\SOURCE\REPOS\GAME_2.0\GAME_2.0\MAIN.CPP
C:\USERS\SUGAR\SOURCE\REPOS\GAME_2.0\GAME_2.0\DEBUG\VC142.PDB
C:\USERS\SUGAR\SOURCE\REPOS\GAME_2.0\GAME_2.0\DEBUG\VC142.IDB
C:\USERS\SUGAR\SOURCE\REPOS\GAME_2.0\GAME_2.0\DEBUG\MAIN.OBJ
C:\USERS\SUGAR\SOURCE\REPOS\GAME_2.0\GAME_2.0\DEBUG\GAMEPROCESS.OBJ
^C:\USERS\SUGAR\SOURCE\REPOS\GAME_2.0\GAME_2.0\CONFIGURATION.CPP|C:\USERS\SUGAR\SOURCE\REPOS\GAME_2.0\GAME_2.0\GAMEPROCESS.CPP|C:\USERS\SUGAR\SOURCE\REPOS\GAME_2.0\GAME_2.0\HERO.CPP|C:\USERS\SUGAR\SOURCE\REPOS\GAME_2.0\GAME_2.0\HEROMEDIATOR.CPP|C:\USERS\SUGAR\SOURCE\REPOS\GAME_2.0\GAME_2.0\MAIN.CPP
C:\USERS\SUGAR\SOURCE\REPOS\GAME_2.0\GAME_2.0\DEBUG\VC142.PDB
C:\USERS\SUGAR\SOURCE\REPOS\GAME_2.0\GAME_2.0\DEBUG\VC142.IDB
C:\USERS\SUGAR\SOURCE\REPOS\GAME_2.0\GAME_2.0\DEBUG\HEROMEDIATOR.OBJ
C:\USERS\SUGAR\SOURCE\REPOS\GAME_2.0\GAME_2.0\DEBUG\HERO.OBJ
C:\USERS\SUGAR\SOURCE\REPOS\GAME_2.0\GAME_2.0\DEBUG\GAMEPROCESS.OBJ
C:\USERS\SUGAR\SOURCE\REPOS\GAME_2.0\GAME_2.0\DEBUG\CONFIGURATION.OBJ
^C:\USERS\SUGAR\SOURCE\REPOS\GAME_2.0\GAME_2.0\HERO.CPP
C:\USERS\SUGAR\SOURCE\REPOS\GAME_2.0\GAME_2.0\DEBUG\HERO.OBJ
^C:\USERS\SUGAR\SOURCE\REPOS\GAME_2.0\GAME_2.0\HEROMEDIATOR.CPP
C:\USERS\SUGAR\SOURCE\REPOS\GAME_2.0\GAME_2.0\DEBUG\HEROMEDIATOR.OBJ
^C:\USERS\SUGAR\SOURCE\REPOS\GAME_2.0\GAME_2.0\CONFIGURATION.CPP|C:\USERS\SUGAR\SOURCE\REPOS\GAME_2.0\GAME_2.0\DIALOGUE.CPP|C:\USERS\SUGAR\SOURCE\REPOS\GAME_2.0\GAME_2.0\DIALOGUEITERATOR.CPP|C:\USERS\SUGAR\SOURCE\REPOS\GAME_2.0\GAME_2.0\DIALOGUEPARSER.CPP|C:\USERS\SUGAR\SOURCE\REPOS\GAME_2.0\GAME_2.0\GAMEPROCESS.CPP|C:\USERS\SUGAR\SOURCE\REPOS\GAME_2.0\GAME_2.0\LEVEL.CPP|C:\USERS\SUGAR\SOURCE\REPOS\GAME_2.0\GAME_2.0\MAIN.CPP|C:\USERS\SUGAR\SOURCE\REPOS\GAME_2.0\GAME_2.0\PHRASENODE.CPP|C:\USERS\SUGAR\SOURCE\REPOS\GAME_2.0\GAME_2.0\PLOT.CPP|C:\USERS\SUGAR\SOURCE\REPOS\GAME_2.0\GAME_2.0\PLOTMANAGER.CPP|C:\USERS\SUGAR\SOURCE\REPOS\GAME_2.0\GAME_2.0\PLOTPART.CPP|C:\USERS\SUGAR\SOURCE\REPOS\GAME_2.0\GAME_2.0\PLOTPARTDECORATOR.CPP
C:\USERS\SUGAR\SOURCE\REPOS\GAME_2.0\GAME_2.0\DEBUG\VC142.PDB
C:\USERS\SUGAR\SOURCE\REPOS\GAME_2.0\GAME_2.0\DEBUG\VC142.IDB
C:\USERS\SUGAR\SOURCE\REPOS\GAME_2.0\GAME_2.0\DEBUG\PLOTPARTDECORATOR.OBJ
C:\USERS\SUGAR\SOURCE\REPOS\GAME_2.0\GAME_2.0\DEBUG\PLOTPART.OBJ
C:\USERS\SUGAR\SOURCE\REPOS\GAME_2.0\GAME_2.0\DEBUG\PLOTMANAGER.OBJ
C:\USERS\SUGAR\SOURCE\REPOS\GAME_2.0\GAME_2.0\DEBUG\PLOT.OBJ
C:\USERS\SUGAR\SOURCE\REPOS\GAME_2.0\GAME_2.0\DEBUG\PHRASENODE.OBJ
C:\USERS\SUGAR\SOURCE\REPOS\GAME_2.0\GAME_2.0\DEBUG\MAIN.OBJ
C:\USERS\SUGAR\SOURCE\REPOS\GAME_2.0\GAME_2.0\DEBUG\LEVEL.OBJ
C:\USERS\SUGAR\SOURCE\REPOS\GAME_2.0\GAME_2.0\DEBUG\GAMEPROCESS.OBJ
C:\USERS\SUGAR\SOURCE\REPOS\GAME_2.0\GAME_2.0\DEBUG\DIALOGUEPARSER.OBJ
C:\USERS\SUGAR\SOURCE\REPOS\GAME_2.0\GAME_2.0\DEBUG\DIALOGUEITERATOR.OBJ
C:\USERS\SUGAR\SOURCE\REPOS\GAME_2.0\GAME_2.0\DEBUG\DIALOGUE.OBJ
C:\USERS\SUGAR\SOURCE\REPOS\GAME_2.0\GAME_2.0\DEBUG\CONFIGURATION.OBJ
^C:\USERS\SUGAR\SOURCE\REPOS\GAME_2.0\GAME_2.0\CONFIGURATION.CPP
C:\USERS\SUGAR\SOURCE\REPOS\GAME_2.0\GAME_2.0\DEBUG\VC142.PDB
^C:\USERS\SUGAR\SOURCE\REPOS\GAME_2.0\GAME_2.0\DIALOGUE.CPP
C:\USERS\SUGAR\SOURCE\REPOS\GAME_2.0\GAME_2.0\DEBUG\VC142.PDB
^C:\USERS\SUGAR\SOURCE\REPOS\GAME_2.0\GAME_2.0\DIALOGUEITERATOR.CPP
C:\USERS\SUGAR\SOURCE\REPOS\GAME_2.0\GAME_2.0\DEBUG\VC142.PDB
^C:\USERS\SUGAR\SOURCE\REPOS\GAME_2.0\GAME_2.0\DIALOGUEPARSER.CPP
C:\USERS\SUGAR\SOURCE\REPOS\GAME_2.0\GAME_2.0\DEBUG\VC142.PDB
^C:\USERS\SUGAR\SOURCE\REPOS\GAME_2.0\GAME_2.0\GAMEPROCESS.CPP
C:\USERS\SUGAR\SOURCE\REPOS\GAME_2.0\GAME_2.0\DEBUG\VC142.PDB
^C:\USERS\SUGAR\SOURCE\REPOS\GAME_2.0\GAME_2.0\PHRASENODE.CPP
C:\USERS\SUGAR\SOURCE\REPOS\GAME_2.0\GAME_2.0\DEBUG\VC142.PDB
^C:\USERS\SUGAR\SOURCE\REPOS\GAME_2.0\GAME_2.0\PLOTPART.CPP
C:\USERS\SUGAR\SOURCE\REPOS\GAME_2.0\GAME_2.0\DEBUG\VC142.PDB
^C:\USERS\SUGAR\SOURCE\REPOS\GAME_2.0\GAME_2.0\PLOTPARTDECORATOR.CPP
C:\USERS\SUGAR\SOURCE\REPOS\GAME_2.0\GAME_2.0\DEBUG\VC142.PDB
^C:\USERS\SUGAR\SOURCE\REPOS\GAME_2.0\GAME_2.0\LEVEL.CPP|C:\USERS\SUGAR\SOURCE\REPOS\GAME_2.0\GAME_2.0\PLOT.CPP|C:\USERS\SUGAR\SOURCE\REPOS\GAME_2.0\GAME_2.0\PLOTMANAGER.CPP|C:\USERS\SUGAR\SOURCE\REPOS\GAME_2.0\GAME_2.0\_LEVEL.CPP|C:\USERS\SUGAR\SOURCE\REPOS\GAME_2.0\GAME_2.0\_PLOT.CPP
C:\USERS\SUGAR\SOURCE\REPOS\GAME_2.0\GAME_2.0\DEBUG\VC142.PDB
C:\USERS\SUGAR\SOURCE\REPOS\GAME_2.0\GAME_2.0\DEBUG\VC142.IDB
C:\USERS\SUGAR\SOURCE\REPOS\GAME_2.0\GAME_2.0\DEBUG\PLOT.OBJ
C:\USERS\SUGAR\SOURCE\REPOS\GAME_2.0\GAME_2.0\DEBUG\LEVEL.OBJ
^C:\USERS\SUGAR\SOURCE\REPOS\GAME_2.0\GAME_2.0\LEVEL.CPP
C:\USERS\SUGAR\SOURCE\REPOS\GAME_2.0\GAME_2.0\DEBUG\LEVEL.OBJ
^C:\USERS\SUGAR\SOURCE\REPOS\GAME_2.0\GAME_2.0\PLOT.CPP
C:\USERS\SUGAR\SOURCE\REPOS\GAME_2.0\GAME_2.0\DEBUG\PLOT.OBJ
^C:\USERS\SUGAR\SOURCE\REPOS\GAME_2.0\GAME_2.0\PLOTMANAGER.CPP|C:\USERS\SUGAR\SOURCE\REPOS\GAME_2.0\GAME_2.0\_LEVEL.CPP|C:\USERS\SUGAR\SOURCE\REPOS\GAME_2.0\GAME_2.0\_PLOT.CPP
C:\USERS\SUGAR\SOURCE\REPOS\GAME_2.0\GAME_2.0\DEBUG\VC142.PDB
C:\USERS\SUGAR\SOURCE\REPOS\GAME_2.0\GAME_2.0\DEBUG\VC142.IDB
C:\USERS\SUGAR\SOURCE\REPOS\GAME_2.0\GAME_2.0\DEBUG\_LEVEL.OBJ
C:\USERS\SUGAR\SOURCE\REPOS\GAME_2.0\GAME_2.0\DEBUG\PLOTMANAGER.OBJ
^C:\USERS\SUGAR\SOURCE\REPOS\GAME_2.0\GAME_2.0\PLOTMANAGER.CPP
C:\USERS\SUGAR\SOURCE\REPOS\GAME_2.0\GAME_2.0\DEBUG\PLOTMANAGER.OBJ
^C:\USERS\SUGAR\SOURCE\REPOS\GAME_2.0\GAME_2.0\_LEVEL.CPP
C:\USERS\SUGAR\SOURCE\REPOS\GAME_2.0\GAME_2.0\DEBUG\_LEVEL.OBJ
^C:\USERS\SUGAR\SOURCE\REPOS\GAME_2.0\GAME_2.0\_PLOT.CPP
C:\USERS\SUGAR\SOURCE\REPOS\GAME_2.0\GAME_2.0\DEBUG\VC142.PDB
C:\USERS\SUGAR\SOURCE\REPOS\GAME_2.0\GAME_2.0\DEBUG\VC142.IDB
C:\USERS\SUGAR\SOURCE\REPOS\GAME_2.0\GAME_2.0\DEBUG\_PLOT.OBJ
^C:\USERS\SUGAR\SOURCE\REPOS\GAME_2.0\GAME_2.0\MAIN.CPP
C:\USERS\SUGAR\SOURCE\REPOS\GAME_2.0\GAME_2.0\DEBUG\VC142.PDB
C:\USERS\SUGAR\SOURCE\REPOS\GAME_2.0\GAME_2.0\DEBUG\VC142.IDB
C:\USERS\SUGAR\SOURCE\REPOS\GAME_2.0\GAME_2.0\DEBUG\MAIN.OBJ
^C:\USERS\SUGAR\SOURCE\REPOS\GAME_3.0\GAME_2.0\CONFIGURATION.CPP|C:\USERS\SUGAR\SOURCE\REPOS\GAME_3.0\GAME_2.0\DIALOGUE.CPP|C:\USERS\SUGAR\SOURCE\REPOS\GAME_3.0\GAME_2.0\DIALOGUEITERATOR.CPP|C:\USERS\SUGAR\SOURCE\REPOS\GAME_3.0\GAME_2.0\DIALOGUEPARSER.CPP|C:\USERS\SUGAR\SOURCE\REPOS\GAME_3.0\GAME_2.0\GAMEPROCESS.CPP|C:\USERS\SUGAR\SOURCE\REPOS\GAME_3.0\GAME_2.0\HERO.CPP|C:\USERS\SUGAR\SOURCE\REPOS\GAME_3.0\GAME_2.0\HEROMEDIATOR.CPP|C:\USERS\SUGAR\SOURCE\REPOS\GAME_3.0\GAME_2.0\LEVEL.CPP|C:\USERS\SUGAR\SOURCE\REPOS\GAME_3.0\GAME_2.0\MAIN.CPP|C:\USERS\SUGAR\SOURCE\REPOS\GAME_3.0\GAME_2.0\PHRASENODE.CPP|C:\USERS\SUGAR\SOURCE\REPOS\GAME_3.0\GAME_2.0\PLOT.CPP|C:\USERS\SUGAR\SOURCE\REPOS\GAME_3.0\GAME_2.0\PLOTMANAGER.CPP|C:\USERS\SUGAR\SOURCE\REPOS\GAME_3.0\GAME_2.0\PLOTPART.CPP|C:\USERS\SUGAR\SOURCE\REPOS\GAME_3.0\GAME_2.0\PLOTPARTDECORATOR.CPP
C:\USERS\SUGAR\SOURCE\REPOS\GAME_3.0\GAME_2.0\DEBUG\VC142.PDB
C:\USERS\SUGAR\SOURCE\REPOS\GAME_3.0\GAME_2.0\DEBUG\VC142.IDB
C:\USERS\SUGAR\SOURCE\REPOS\GAME_3.0\GAME_2.0\DEBUG\PLOTPARTDECORATOR.OBJ
C:\USERS\SUGAR\SOURCE\REPOS\GAME_3.0\GAME_2.0\DEBUG\PLOTPART.OBJ
C:\USERS\SUGAR\SOURCE\REPOS\GAME_3.0\GAME_2.0\DEBUG\PLOTMANAGER.OBJ
C:\USERS\SUGAR\SOURCE\REPOS\GAME_3.0\GAME_2.0\DEBUG\PLOT.OBJ
C:\USERS\SUGAR\SOURCE\REPOS\GAME_3.0\GAME_2.0\DEBUG\PHRASENODE.OBJ
C:\USERS\SUGAR\SOURCE\REPOS\GAME_3.0\GAME_2.0\DEBUG\MAIN.OBJ
C:\USERS\SUGAR\SOURCE\REPOS\GAME_3.0\GAME_2.0\DEBUG\LEVEL.OBJ
C:\USERS\SUGAR\SOURCE\REPOS\GAME_3.0\GAME_2.0\DEBUG\HEROMEDIATOR.OBJ
C:\USERS\SUGAR\SOURCE\REPOS\GAME_3.0\GAME_2.0\DEBUG\HERO.OBJ
C:\USERS\SUGAR\SOURCE\REPOS\GAME_3.0\GAME_2.0\DEBUG\GAMEPROCESS.OBJ
C:\USERS\SUGAR\SOURCE\REPOS\GAME_3.0\GAME_2.0\DEBUG\DIALOGUEPARSER.OBJ
C:\USERS\SUGAR\SOURCE\REPOS\GAME_3.0\GAME_2.0\DEBUG\DIALOGUEITERATOR.OBJ
C:\USERS\SUGAR\SOURCE\REPOS\GAME_3.0\GAME_2.0\DEBUG\CONFIGURATION.OBJ
^C:\USERS\SUGAR\SOURCE\REPOS\GAME_3.0\GAME_2.0\PLOTPART.CPP
C:\USERS\SUGAR\SOURCE\REPOS\GAME_3.0\GAME_2.0\DEBUG\PLOTPART.OBJ
^C:\USERS\SUGAR\SOURCE\REPOS\GAME_3.0\GAME_2.0\DIALOGUE.CPP|C:\USERS\SUGAR\SOURCE\REPOS\GAME_3.0\GAME_2.0\DIALOGUEITERATOR.CPP|C:\USERS\SUGAR\SOURCE\REPOS\GAME_3.0\GAME_2.0\DIALOGUEPARSER.CPP|C:\USERS\SUGAR\SOURCE\REPOS\GAME_3.0\GAME_2.0\PLOTMANAGER.CPP|C:\USERS\SUGAR\SOURCE\REPOS\GAME_3.0\GAME_2.0\PLOTPARTDECORATOR.CPP
C:\USERS\SUGAR\SOURCE\REPOS\GAME_3.0\GAME_2.0\DEBUG\VC142.PDB
C:\USERS\SUGAR\SOURCE\REPOS\GAME_3.0\GAME_2.0\DEBUG\VC142.IDB
C:\USERS\SUGAR\SOURCE\REPOS\GAME_3.0\GAME_2.0\DEBUG\PLOTPARTDECORATOR.OBJ
C:\USERS\SUGAR\SOURCE\REPOS\GAME_3.0\GAME_2.0\DEBUG\PLOTMANAGER.OBJ
C:\USERS\SUGAR\SOURCE\REPOS\GAME_3.0\GAME_2.0\DEBUG\DIALOGUEPARSER.OBJ
C:\USERS\SUGAR\SOURCE\REPOS\GAME_3.0\GAME_2.0\DEBUG\DIALOGUEITERATOR.OBJ
C:\USERS\SUGAR\SOURCE\REPOS\GAME_3.0\GAME_2.0\DEBUG\DIALOGUE.OBJ
^C:\USERS\SUGAR\SOURCE\REPOS\GAME_3.0\GAME_2.0\PLOTPARTDECORATOR.CPP
C:\USERS\SUGAR\SOURCE\REPOS\GAME_3.0\GAME_2.0\DEBUG\VC142.PDB
^C:\USERS\SUGAR\SOURCE\REPOS\GAME_3.0\GAME_2.0\DIALOGUE.CPP|C:\USERS\SUGAR\SOURCE\REPOS\GAME_3.0\GAME_2.0\DIALOGUEITERATOR.CPP|C:\USERS\SUGAR\SOURCE\REPOS\GAME_3.0\GAME_2.0\DIALOGUEPARSER.CPP|C:\USERS\SUGAR\SOURCE\REPOS\GAME_3.0\GAME_2.0\PLOTMANAGER.CPP
C:\USERS\SUGAR\SOURCE\REPOS\GAME_3.0\GAME_2.0\DEBUG\VC142.PDB
C:\USERS\SUGAR\SOURCE\REPOS\GAME_3.0\GAME_2.0\DEBUG\VC142.IDB
C:\USERS\SUGAR\SOURCE\REPOS\GAME_3.0\GAME_2.0\DEBUG\PLOTMANAGER.OBJ
C:\USERS\SUGAR\SOURCE\REPOS\GAME_3.0\GAME_2.0\DEBUG\DIALOGUEPARSER.OBJ
C:\USERS\SUGAR\SOURCE\REPOS\GAME_3.0\GAME_2.0\DEBUG\DIALOGUEITERATOR.OBJ
C:\USERS\SUGAR\SOURCE\REPOS\GAME_3.0\GAME_2.0\DEBUG\DIALOGUE.OBJ
^C:\USERS\SUGAR\SOURCE\REPOS\GAME_3.0\GAME_2.0\DIALOGUE.CPP|C:\USERS\SUGAR\SOURCE\REPOS\GAME_3.0\GAME_2.0\DIALOGUEITERATOR.CPP|C:\USERS\SUGAR\SOURCE\REPOS\GAME_3.0\GAME_2.0\DIALOGUEPARSER.CPP|C:\USERS\SUGAR\SOURCE\REPOS\GAME_3.0\GAME_2.0\MAIN.CPP|C:\USERS\SUGAR\SOURCE\REPOS\GAME_3.0\GAME_2.0\PLOTMANAGER.CPP
C:\USERS\SUGAR\SOURCE\REPOS\GAME_3.0\GAME_2.0\DEBUG\VC142.PDB
C:\USERS\SUGAR\SOURCE\REPOS\GAME_3.0\GAME_2.0\DEBUG\VC142.IDB
C:\USERS\SUGAR\SOURCE\REPOS\GAME_3.0\GAME_2.0\DEBUG\PLOTMANAGER.OBJ
C:\USERS\SUGAR\SOURCE\REPOS\GAME_3.0\GAME_2.0\DEBUG\DIALOGUEPARSER.OBJ
C:\USERS\SUGAR\SOURCE\REPOS\GAME_3.0\GAME_2.0\DEBUG\DIALOGUEITERATOR.OBJ
C:\USERS\SUGAR\SOURCE\REPOS\GAME_3.0\GAME_2.0\DEBUG\DIALOGUE.OBJ
^C:\USERS\SUGAR\SOURCE\REPOS\GAME_3.0\GAME_2.0\CONFIGURATION.CPP|C:\USERS\SUGAR\SOURCE\REPOS\GAME_3.0\GAME_2.0\DIALOGUE.CPP|C:\USERS\SUGAR\SOURCE\REPOS\GAME_3.0\GAME_2.0\DIALOGUEITERATOR.CPP|C:\USERS\SUGAR\SOURCE\REPOS\GAME_3.0\GAME_2.0\DIALOGUEPARSER.CPP|C:\USERS\SUGAR\SOURCE\REPOS\GAME_3.0\GAME_2.0\GAMEPROCESS.CPP|C:\USERS\SUGAR\SOURCE\REPOS\GAME_3.0\GAME_2.0\MAIN.CPP|C:\USERS\SUGAR\SOURCE\REPOS\GAME_3.0\GAME_2.0\PLOTMANAGER.CPP
C:\USERS\SUGAR\SOURCE\REPOS\GAME_3.0\GAME_2.0\DEBUG\VC142.PDB
C:\USERS\SUGAR\SOURCE\REPOS\GAME_3.0\GAME_2.0\DEBUG\VC142.IDB
C:\USERS\SUGAR\SOURCE\REPOS\GAME_3.0\GAME_2.0\DEBUG\PLOTMANAGER.OBJ
C:\USERS\SUGAR\SOURCE\REPOS\GAME_3.0\GAME_2.0\DEBUG\DIALOGUEPARSER.OBJ
C:\USERS\SUGAR\SOURCE\REPOS\GAME_3.0\GAME_2.0\DEBUG\DIALOGUEITERATOR.OBJ
C:\USERS\SUGAR\SOURCE\REPOS\GAME_3.0\GAME_2.0\DEBUG\DIALOGUE.OBJ
^C:\USERS\SUGAR\SOURCE\REPOS\GAME_3.0\GAME_2.0\CONFIGURATION.CPP|C:\USERS\SUGAR\SOURCE\REPOS\GAME_3.0\GAME_2.0\GAMEPROCESS.CPP|C:\USERS\SUGAR\SOURCE\REPOS\GAME_3.0\GAME_2.0\MAIN.CPP|C:\USERS\SUGAR\SOURCE\REPOS\GAME_3.0\GAME_2.0\PLOTMANAGER.CPP
C:\USERS\SUGAR\SOURCE\REPOS\GAME_3.0\GAME_2.0\DEBUG\VC142.PDB
C:\USERS\SUGAR\SOURCE\REPOS\GAME_3.0\GAME_2.0\DEBUG\VC142.IDB
C:\USERS\SUGAR\SOURCE\REPOS\GAME_3.0\GAME_2.0\DEBUG\PLOTMANAGER.OBJ
C:\USERS\SUGAR\SOURCE\REPOS\GAME_3.0\GAME_2.0\DEBUG\MAIN.OBJ
C:\USERS\SUGAR\SOURCE\REPOS\GAME_3.0\GAME_2.0\DEBUG\GAMEPROCESS.OBJ
C:\USERS\SUGAR\SOURCE\REPOS\GAME_3.0\GAME_2.0\DEBUG\CONFIGURATION.OBJ
^C:\USERS\SUGAR\SOURCE\REPOS\GAME_3.0\GAME_2.0\CONFIGURATION.CPP|C:\USERS\SUGAR\SOURCE\REPOS\GAME_3.0\GAME_2.0\DIALOGUE.CPP|C:\USERS\SUGAR\SOURCE\REPOS\GAME_3.0\GAME_2.0\DIALOGUEITERATOR.CPP|C:\USERS\SUGAR\SOURCE\REPOS\GAME_3.0\GAME_2.0\DIALOGUEPARSER.CPP|C:\USERS\SUGAR\SOURCE\REPOS\GAME_3.0\GAME_2.0\GAMEPROCESS.CPP|C:\USERS\SUGAR\SOURCE\REPOS\GAME_3.0\GAME_2.0\LEVEL.CPP|C:\USERS\SUGAR\SOURCE\REPOS\GAME_3.0\GAME_2.0\MAIN.CPP|C:\USERS\SUGAR\SOURCE\REPOS\GAME_3.0\GAME_2.0\PHRASENODE.CPP|C:\USERS\SUGAR\SOURCE\REPOS\GAME_3.0\GAME_2.0\PLOT.CPP|C:\USERS\SUGAR\SOURCE\REPOS\GAME_3.0\GAME_2.0\PLOTMANAGER.CPP
C:\USERS\SUGAR\SOURCE\REPOS\GAME_3.0\GAME_2.0\DEBUG\VC142.PDB
C:\USERS\SUGAR\SOURCE\REPOS\GAME_3.0\GAME_2.0\DEBUG\VC142.IDB
C:\USERS\SUGAR\SOURCE\REPOS\GAME_3.0\GAME_2.0\DEBUG\PLOTMANAGER.OBJ
C:\USERS\SUGAR\SOURCE\REPOS\GAME_3.0\GAME_2.0\DEBUG\PLOT.OBJ
C:\USERS\SUGAR\SOURCE\REPOS\GAME_3.0\GAME_2.0\DEBUG\PHRASENODE.OBJ
C:\USERS\SUGAR\SOURCE\REPOS\GAME_3.0\GAME_2.0\DEBUG\MAIN.OBJ
C:\USERS\SUGAR\SOURCE\REPOS\GAME_3.0\GAME_2.0\DEBUG\LEVEL.OBJ
C:\USERS\SUGAR\SOURCE\REPOS\GAME_3.0\GAME_2.0\DEBUG\GAMEPROCESS.OBJ
C:\USERS\SUGAR\SOURCE\REPOS\GAME_3.0\GAME_2.0\DEBUG\DIALOGUEPARSER.OBJ
C:\USERS\SUGAR\SOURCE\REPOS\GAME_3.0\GAME_2.0\DEBUG\DIALOGUEITERATOR.OBJ
C:\USERS\SUGAR\SOURCE\REPOS\GAME_3.0\GAME_2.0\DEBUG\DIALOGUE.OBJ
C:\USERS\SUGAR\SOURCE\REPOS\GAME_3.0\GAME_2.0\DEBUG\CONFIGURATION.OBJ
^C:\USERS\SUGAR\SOURCE\REPOS\GAME_3.0\GAME_2.0\CONFIGURATION.CPP|C:\USERS\SUGAR\SOURCE\REPOS\GAME_3.0\GAME_2.0\DIALOGUE.CPP|C:\USERS\SUGAR\SOURCE\REPOS\GAME_3.0\GAME_2.0\DIALOGUEITERATOR.CPP|C:\USERS\SUGAR\SOURCE\REPOS\GAME_3.0\GAME_2.0\DIALOGUEPARSER.CPP|C:\USERS\SUGAR\SOURCE\REPOS\GAME_3.0\GAME_2.0\GAMEPROCESS.CPP|C:\USERS\SUGAR\SOURCE\REPOS\GAME_3.0\GAME_2.0\HERO.CPP|C:\USERS\SUGAR\SOURCE\REPOS\GAME_3.0\GAME_2.0\HEROMEDIATOR.CPP|C:\USERS\SUGAR\SOURCE\REPOS\GAME_3.0\GAME_2.0\LEVEL.CPP|C:\USERS\SUGAR\SOURCE\REPOS\GAME_3.0\GAME_2.0\MAIN.CPP|C:\USERS\SUGAR\SOURCE\REPOS\GAME_3.0\GAME_2.0\PHRASENODE.CPP|C:\USERS\SUGAR\SOURCE\REPOS\GAME_3.0\GAME_2.0\PLOT.CPP|C:\USERS\SUGAR\SOURCE\REPOS\GAME_3.0\GAME_2.0\PLOTMANAGER.CPP
C:\USERS\SUGAR\SOURCE\REPOS\GAME_3.0\GAME_2.0\DEBUG\VC142.PDB
C:\USERS\SUGAR\SOURCE\REPOS\GAME_3.0\GAME_2.0\DEBUG\VC142.IDB
C:\USERS\SUGAR\SOURCE\REPOS\GAME_3.0\GAME_2.0\DEBUG\PLOTMANAGER.OBJ
C:\USERS\SUGAR\SOURCE\REPOS\GAME_3.0\GAME_2.0\DEBUG\PLOT.OBJ
C:\USERS\SUGAR\SOURCE\REPOS\GAME_3.0\GAME_2.0\DEBUG\PHRASENODE.OBJ
C:\USERS\SUGAR\SOURCE\REPOS\GAME_3.0\GAME_2.0\DEBUG\LEVEL.OBJ
C:\USERS\SUGAR\SOURCE\REPOS\GAME_3.0\GAME_2.0\DEBUG\HEROMEDIATOR.OBJ
C:\USERS\SUGAR\SOURCE\REPOS\GAME_3.0\GAME_2.0\DEBUG\HERO.OBJ
C:\USERS\SUGAR\SOURCE\REPOS\GAME_3.0\GAME_2.0\DEBUG\DIALOGUEPARSER.OBJ
C:\USERS\SUGAR\SOURCE\REPOS\GAME_3.0\GAME_2.0\DEBUG\DIALOGUEITERATOR.OBJ
C:\USERS\SUGAR\SOURCE\REPOS\GAME_3.0\GAME_2.0\DEBUG\DIALOGUE.OBJ
^C:\USERS\SUGAR\SOURCE\REPOS\GAME_3.0\GAME_2.0\CONFIGURATION.CPP|C:\USERS\SUGAR\SOURCE\REPOS\GAME_3.0\GAME_2.0\GAMEPROCESS.CPP|C:\USERS\SUGAR\SOURCE\REPOS\GAME_3.0\GAME_2.0\HERO.CPP|C:\USERS\SUGAR\SOURCE\REPOS\GAME_3.0\GAME_2.0\HEROMEDIATOR.CPP|C:\USERS\SUGAR\SOURCE\REPOS\GAME_3.0\GAME_2.0\MAIN.CPP|C:\USERS\SUGAR\SOURCE\REPOS\GAME_3.0\GAME_2.0\PHRASENODE.CPP|C:\USERS\SUGAR\SOURCE\REPOS\GAME_3.0\GAME_2.0\PLOTMANAGER.CPP
C:\USERS\SUGAR\SOURCE\REPOS\GAME_3.0\GAME_2.0\DEBUG\VC142.PDB
C:\USERS\SUGAR\SOURCE\REPOS\GAME_3.0\GAME_2.0\DEBUG\VC142.IDB
C:\USERS\SUGAR\SOURCE\REPOS\GAME_3.0\GAME_2.0\DEBUG\PLOTMANAGER.OBJ
C:\USERS\SUGAR\SOURCE\REPOS\GAME_3.0\GAME_2.0\DEBUG\PHRASENODE.OBJ
C:\USERS\SUGAR\SOURCE\REPOS\GAME_3.0\GAME_2.0\DEBUG\HEROMEDIATOR.OBJ
C:\USERS\SUGAR\SOURCE\REPOS\GAME_3.0\GAME_2.0\DEBUG\GAMEPROCESS.OBJ
C:\USERS\SUGAR\SOURCE\REPOS\GAME_3.0\GAME_2.0\DEBUG\CONFIGURATION.OBJ
^C:\USERS\SUGAR\SOURCE\REPOS\GAME_3.0\GAME_2.0\HERO.CPP|C:\USERS\SUGAR\SOURCE\REPOS\GAME_3.0\GAME_2.0\HEROMEDIATOR.CPP|C:\USERS\SUGAR\SOURCE\REPOS\GAME_3.0\GAME_2.0\MAIN.CPP|C:\USERS\SUGAR\SOURCE\REPOS\GAME_3.0\GAME_2.0\PHRASENODE.CPP|C:\USERS\SUGAR\SOURCE\REPOS\GAME_3.0\GAME_2.0\PLOTMANAGER.CPP
C:\USERS\SUGAR\SOURCE\REPOS\GAME_3.0\GAME_2.0\DEBUG\VC142.PDB
C:\USERS\SUGAR\SOURCE\REPOS\GAME_3.0\GAME_2.0\DEBUG\VC142.IDB
C:\USERS\SUGAR\SOURCE\REPOS\GAME_3.0\GAME_2.0\DEBUG\PLOTMANAGER.OBJ
C:\USERS\SUGAR\SOURCE\REPOS\GAME_3.0\GAME_2.0\DEBUG\PHRASENODE.OBJ
C:\USERS\SUGAR\SOURCE\REPOS\GAME_3.0\GAME_2.0\DEBUG\MAIN.OBJ
C:\USERS\SUGAR\SOURCE\REPOS\GAME_3.0\GAME_2.0\DEBUG\HEROMEDIATOR.OBJ
^C:\USERS\SUGAR\SOURCE\REPOS\GAME_3.0\GAME_2.0\CONFIGURATION.CPP|C:\USERS\SUGAR\SOURCE\REPOS\GAME_3.0\GAME_2.0\GAMEPROCESS.CPP|C:\USERS\SUGAR\SOURCE\REPOS\GAME_3.0\GAME_2.0\HERO.CPP|C:\USERS\SUGAR\SOURCE\REPOS\GAME_3.0\GAME_2.0\HEROMEDIATOR.CPP|C:\USERS\SUGAR\SOURCE\REPOS\GAME_3.0\GAME_2.0\MAIN.CPP|C:\USERS\SUGAR\SOURCE\REPOS\GAME_3.0\GAME_2.0\PLOTMANAGER.CPP
C:\USERS\SUGAR\SOURCE\REPOS\GAME_3.0\GAME_2.0\DEBUG\VC142.PDB
C:\USERS\SUGAR\SOURCE\REPOS\GAME_3.0\GAME_2.0\DEBUG\VC142.IDB
C:\USERS\SUGAR\SOURCE\REPOS\GAME_3.0\GAME_2.0\DEBUG\PLOTMANAGER.OBJ
C:\USERS\SUGAR\SOURCE\REPOS\GAME_3.0\GAME_2.0\DEBUG\MAIN.OBJ
C:\USERS\SUGAR\SOURCE\REPOS\GAME_3.0\GAME_2.0\DEBUG\HEROMEDIATOR.OBJ
C:\USERS\SUGAR\SOURCE\REPOS\GAME_3.0\GAME_2.0\DEBUG\HERO.OBJ
C:\USERS\SUGAR\SOURCE\REPOS\GAME_3.0\GAME_2.0\DEBUG\GAMEPROCESS.OBJ
C:\USERS\SUGAR\SOURCE\REPOS\GAME_3.0\GAME_2.0\DEBUG\CONFIGURATION.OBJ
^C:\USERS\SUGAR\SOURCE\REPOS\GAME_3.0\GAME_2.0\CONFIGURATION.CPP|C:\USERS\SUGAR\SOURCE\REPOS\GAME_3.0\GAME_2.0\DIALOGUE.CPP|C:\USERS\SUGAR\SOURCE\REPOS\GAME_3.0\GAME_2.0\DIALOGUEITERATOR.CPP|C:\USERS\SUGAR\SOURCE\REPOS\GAME_3.0\GAME_2.0\DIALOGUEPARSER.CPP|C:\USERS\SUGAR\SOURCE\REPOS\GAME_3.0\GAME_2.0\GAMEPROCESS.CPP|C:\USERS\SUGAR\SOURCE\REPOS\GAME_3.0\GAME_2.0\HEROMEDIATOR.CPP|C:\USERS\SUGAR\SOURCE\REPOS\GAME_3.0\GAME_2.0\LEVEL.CPP|C:\USERS\SUGAR\SOURCE\REPOS\GAME_3.0\GAME_2.0\MAIN.CPP|C:\USERS\SUGAR\SOURCE\REPOS\GAME_3.0\GAME_2.0\PHRASENODE.CPP|C:\USERS\SUGAR\SOURCE\REPOS\GAME_3.0\GAME_2.0\PLOT.CPP|C:\USERS\SUGAR\SOURCE\REPOS\GAME_3.0\GAME_2.0\PLOTMANAGER.CPP
C:\USERS\SUGAR\SOURCE\REPOS\GAME_3.0\GAME_2.0\DEBUG\VC142.PDB
C:\USERS\SUGAR\SOURCE\REPOS\GAME_3.0\GAME_2.0\DEBUG\VC142.IDB
C:\USERS\SUGAR\SOURCE\REPOS\GAME_3.0\GAME_2.0\DEBUG\PLOTMANAGER.OBJ
C:\USERS\SUGAR\SOURCE\REPOS\GAME_3.0\GAME_2.0\DEBUG\PLOT.OBJ
C:\USERS\SUGAR\SOURCE\REPOS\GAME_3.0\GAME_2.0\DEBUG\PHRASENODE.OBJ
C:\USERS\SUGAR\SOURCE\REPOS\GAME_3.0\GAME_2.0\DEBUG\MAIN.OBJ
C:\USERS\SUGAR\SOURCE\REPOS\GAME_3.0\GAME_2.0\DEBUG\LEVEL.OBJ
C:\USERS\SUGAR\SOURCE\REPOS\GAME_3.0\GAME_2.0\DEBUG\HEROMEDIATOR.OBJ
C:\USERS\SUGAR\SOURCE\REPOS\GAME_3.0\GAME_2.0\DEBUG\GAMEPROCESS.OBJ
C:\USERS\SUGAR\SOURCE\REPOS\GAME_3.0\GAME_2.0\DEBUG\DIALOGUEPARSER.OBJ
C:\USERS\SUGAR\SOURCE\REPOS\GAME_3.0\GAME_2.0\DEBUG\DIALOGUEITERATOR.OBJ
C:\USERS\SUGAR\SOURCE\REPOS\GAME_3.0\GAME_2.0\DEBUG\DIALOGUE.OBJ
C:\USERS\SUGAR\SOURCE\REPOS\GAME_3.0\GAME_2.0\DEBUG\CONFIGURATION.OBJ
^C:\USERS\SUGAR\SOURCE\REPOS\GAME_3.0\GAME_2.0\LEVEL.CPP
C:\USERS\SUGAR\SOURCE\REPOS\GAME_3.0\GAME_2.0\DEBUG\VC142.PDB
^C:\USERS\SUGAR\SOURCE\REPOS\GAME_3.0\GAME_2.0\PHRASENODE.CPP
C:\USERS\SUGAR\SOURCE\REPOS\GAME_3.0\GAME_2.0\DEBUG\VC142.PDB
^C:\USERS\SUGAR\SOURCE\REPOS\GAME_3.0\GAME_2.0\PLOT.CPP
C:\USERS\SUGAR\SOURCE\REPOS\GAME_3.0\GAME_2.0\DEBUG\VC142.PDB
^C:\USERS\SUGAR\SOURCE\REPOS\GAME_3.0\GAME_2.0\GAMEPROCESS.CPP|C:\USERS\SUGAR\SOURCE\REPOS\GAME_3.0\GAME_2.0\HEROMEDIATOR.CPP
C:\USERS\SUGAR\SOURCE\REPOS\GAME_3.0\GAME_2.0\DEBUG\VC142.PDB
C:\USERS\SUGAR\SOURCE\REPOS\GAME_3.0\GAME_2.0\DEBUG\VC142.IDB
C:\USERS\SUGAR\SOURCE\REPOS\GAME_3.0\GAME_2.0\DEBUG\HEROMEDIATOR.OBJ
C:\USERS\SUGAR\SOURCE\REPOS\GAME_3.0\GAME_2.0\DEBUG\GAMEPROCESS.OBJ
^C:\USERS\SUGAR\SOURCE\REPOS\GAME_3.0\GAME_2.0\CONFIGURATION.CPP|C:\USERS\SUGAR\SOURCE\REPOS\GAME_3.0\GAME_2.0\GAMEPROCESS.CPP|C:\USERS\SUGAR\SOURCE\REPOS\GAME_3.0\GAME_2.0\HERO.CPP|C:\USERS\SUGAR\SOURCE\REPOS\GAME_3.0\GAME_2.0\MAIN.CPP
C:\USERS\SUGAR\SOURCE\REPOS\GAME_3.0\GAME_2.0\DEBUG\VC142.PDB
C:\USERS\SUGAR\SOURCE\REPOS\GAME_3.0\GAME_2.0\DEBUG\VC142.IDB
C:\USERS\SUGAR\SOURCE\REPOS\GAME_3.0\GAME_2.0\DEBUG\MAIN.OBJ
C:\USERS\SUGAR\SOURCE\REPOS\GAME_3.0\GAME_2.0\DEBUG\GAMEPROCESS.OBJ
^C:\USERS\SUGAR\SOURCE\REPOS\GAME_3.0\GAME_2.0\CONFIGURATION.CPP|C:\USERS\SUGAR\SOURCE\REPOS\GAME_3.0\GAME_2.0\HERO.CPP|C:\USERS\SUGAR\SOURCE\REPOS\GAME_3.0\GAME_2.0\MAIN.CPP
C:\USERS\SUGAR\SOURCE\REPOS\GAME_3.0\GAME_2.0\DEBUG\VC142.PDB
C:\USERS\SUGAR\SOURCE\REPOS\GAME_3.0\GAME_2.0\DEBUG\VC142.IDB
C:\USERS\SUGAR\SOURCE\REPOS\GAME_3.0\GAME_2.0\DEBUG\MAIN.OBJ
C:\USERS\SUGAR\SOURCE\REPOS\GAME_3.0\GAME_2.0\DEBUG\CONFIGURATION.OBJ
^C:\USERS\SUGAR\SOURCE\REPOS\GAME_3.0\GAME_2.0\HERO.CPP|C:\USERS\SUGAR\SOURCE\REPOS\GAME_3.0\GAME_2.0\MAIN.CPP
C:\USERS\SUGAR\SOURCE\REPOS\GAME_3.0\GAME_2.0\DEBUG\VC142.PDB
C:\USERS\SUGAR\SOURCE\REPOS\GAME_3.0\GAME_2.0\DEBUG\VC142.IDB
C:\USERS\SUGAR\SOURCE\REPOS\GAME_3.0\GAME_2.0\DEBUG\MAIN.OBJ
C:\USERS\SUGAR\SOURCE\REPOS\GAME_3.0\GAME_2.0\DEBUG\HERO.OBJ
^C:\USERS\SUGAR\SOURCE\REPOS\GAME_3.0\GAME_2.0\GAMEPROCESS.CPP|C:\USERS\SUGAR\SOURCE\REPOS\GAME_3.0\GAME_2.0\MAIN.CPP
C:\USERS\SUGAR\SOURCE\REPOS\GAME_3.0\GAME_2.0\DEBUG\VC142.PDB
C:\USERS\SUGAR\SOURCE\REPOS\GAME_3.0\GAME_2.0\DEBUG\VC142.IDB
C:\USERS\SUGAR\SOURCE\REPOS\GAME_3.0\GAME_2.0\DEBUG\GAMEPROCESS.OBJ
^C:\USERS\SUGAR\SOURCE\REPOS\GAME_3.0\GAME_2.0\CONFIGURATION.CPP|C:\USERS\SUGAR\SOURCE\REPOS\GAME_3.0\GAME_2.0\GAMEPROCESS.CPP|C:\USERS\SUGAR\SOURCE\REPOS\GAME_3.0\GAME_2.0\HERO.CPP|C:\USERS\SUGAR\SOURCE\REPOS\GAME_3.0\GAME_2.0\HEROMEDIATOR.CPP|C:\USERS\SUGAR\SOURCE\REPOS\GAME_3.0\GAME_2.0\MAIN.CPP
C:\USERS\SUGAR\SOURCE\REPOS\GAME_3.0\GAME_2.0\DEBUG\VC142.PDB
C:\USERS\SUGAR\SOURCE\REPOS\GAME_3.0\GAME_2.0\DEBUG\VC142.IDB
C:\USERS\SUGAR\SOURCE\REPOS\GAME_3.0\GAME_2.0\DEBUG\MAIN.OBJ
C:\USERS\SUGAR\SOURCE\REPOS\GAME_3.0\GAME_2.0\DEBUG\HEROMEDIATOR.OBJ
C:\USERS\SUGAR\SOURCE\REPOS\GAME_3.0\GAME_2.0\DEBUG\HERO.OBJ
C:\USERS\SUGAR\SOURCE\REPOS\GAME_3.0\GAME_2.0\DEBUG\GAMEPROCESS.OBJ
C:\USERS\SUGAR\SOURCE\REPOS\GAME_3.0\GAME_2.0\DEBUG\CONFIGURATION.OBJ
^C:\USERS\SUGAR\SOURCE\REPOS\GAME_3.0\GAME_2.0\DIALOGUE.CPP|C:\USERS\SUGAR\SOURCE\REPOS\GAME_3.0\GAME_2.0\DIALOGUEITERATOR.CPP|C:\USERS\SUGAR\SOURCE\REPOS\GAME_3.0\GAME_2.0\DIALOGUEPARSER.CPP|C:\USERS\SUGAR\SOURCE\REPOS\GAME_3.0\GAME_2.0\GAMEPROCESS.CPP|C:\USERS\SUGAR\SOURCE\REPOS\GAME_3.0\GAME_2.0\MAIN.CPP|C:\USERS\SUGAR\SOURCE\REPOS\GAME_3.0\GAME_2.0\PLOTMANAGER.CPP
C:\USERS\SUGAR\SOURCE\REPOS\GAME_3.0\GAME_2.0\DEBUG\VC142.PDB
C:\USERS\SUGAR\SOURCE\REPOS\GAME_3.0\GAME_2.0\DEBUG\VC142.IDB
C:\USERS\SUGAR\SOURCE\REPOS\GAME_3.0\GAME_2.0\DEBUG\PLOTMANAGER.OBJ
C:\USERS\SUGAR\SOURCE\REPOS\GAME_3.0\GAME_2.0\DEBUG\MAIN.OBJ
C:\USERS\SUGAR\SOURCE\REPOS\GAME_3.0\GAME_2.0\DEBUG\GAMEPROCESS.OBJ
C:\USERS\SUGAR\SOURCE\REPOS\GAME_3.0\GAME_2.0\DEBUG\DIALOGUEPARSER.OBJ
C:\USERS\SUGAR\SOURCE\REPOS\GAME_3.0\GAME_2.0\DEBUG\DIALOGUEITERATOR.OBJ
C:\USERS\SUGAR\SOURCE\REPOS\GAME_3.0\GAME_2.0\DEBUG\DIALOGUE.OBJ
^C:\USERS\SUGAR\SOURCE\REPOS\GAME_3.0\GAME_2.0\CONFIGURATION.CPP|C:\USERS\SUGAR\SOURCE\REPOS\GAME_3.0\GAME_2.0\GAMEPROCESS.CPP|C:\USERS\SUGAR\SOURCE\REPOS\GAME_3.0\GAME_2.0\HERO.CPP|C:\USERS\SUGAR\SOURCE\REPOS\GAME_3.0\GAME_2.0\HEROMEDIATOR.CPP|C:\USERS\SUGAR\SOURCE\REPOS\GAME_3.0\GAME_2.0\MAIN.CPP|C:\USERS\SUGAR\SOURCE\REPOS\GAME_3.0\GAME_2.0\SAVE.CPP|C:\USERS\SUGAR\SOURCE\REPOS\GAME_3.0\GAME_2.0\SAVER.CPP
C:\USERS\SUGAR\SOURCE\REPOS\GAME_3.0\GAME_2.0\DEBUG\VC142.PDB
C:\USERS\SUGAR\SOURCE\REPOS\GAME_3.0\GAME_2.0\DEBUG\VC142.IDB
C:\USERS\SUGAR\SOURCE\REPOS\GAME_3.0\GAME_2.0\DEBUG\SAVE.OBJ
C:\USERS\SUGAR\SOURCE\REPOS\GAME_3.0\GAME_2.0\DEBUG\MAIN.OBJ
C:\USERS\SUGAR\SOURCE\REPOS\GAME_3.0\GAME_2.0\DEBUG\HEROMEDIATOR.OBJ
C:\USERS\SUGAR\SOURCE\REPOS\GAME_3.0\GAME_2.0\DEBUG\HERO.OBJ
C:\USERS\SUGAR\SOURCE\REPOS\GAME_3.0\GAME_2.0\DEBUG\GAMEPROCESS.OBJ
^C:\USERS\SUGAR\SOURCE\REPOS\GAME_3.0\GAME_2.0\CONFIGURATION.CPP|C:\USERS\SUGAR\SOURCE\REPOS\GAME_3.0\GAME_2.0\SAVER.CPP
C:\USERS\SUGAR\SOURCE\REPOS\GAME_3.0\GAME_2.0\DEBUG\VC142.PDB
C:\USERS\SUGAR\SOURCE\REPOS\GAME_3.0\GAME_2.0\DEBUG\VC142.IDB
C:\USERS\SUGAR\SOURCE\REPOS\GAME_3.0\GAME_2.0\DEBUG\CONFIGURATION.OBJ
^C:\USERS\SUGAR\SOURCE\REPOS\GAME_3.0\GAME_2.0\CONFIGURATION.CPP|C:\USERS\SUGAR\SOURCE\REPOS\GAME_3.0\GAME_2.0\GAMEPROCESS.CPP
C:\USERS\SUGAR\SOURCE\REPOS\GAME_3.0\GAME_2.0\DEBUG\VC142.PDB
C:\USERS\SUGAR\SOURCE\REPOS\GAME_3.0\GAME_2.0\DEBUG\VC142.IDB
C:\USERS\SUGAR\SOURCE\REPOS\GAME_3.0\GAME_2.0\DEBUG\GAMEPROCESS.OBJ
C:\USERS\SUGAR\SOURCE\REPOS\GAME_3.0\GAME_2.0\DEBUG\CONFIGURATION.OBJ
^C:\USERS\SUGAR\SOURCE\REPOS\GAME_3.0\GAME_2.0\CONFIGURATION.CPP|C:\USERS\SUGAR\SOURCE\REPOS\GAME_3.0\GAME_2.0\HERO.CPP
C:\USERS\SUGAR\SOURCE\REPOS\GAME_3.0\GAME_2.0\DEBUG\VC142.PDB
C:\USERS\SUGAR\SOURCE\REPOS\GAME_3.0\GAME_2.0\DEBUG\VC142.IDB
C:\USERS\SUGAR\SOURCE\REPOS\GAME_3.0\GAME_2.0\DEBUG\HERO.OBJ
C:\USERS\SUGAR\SOURCE\REPOS\GAME_3.0\GAME_2.0\DEBUG\CONFIGURATION.OBJ
^C:\USERS\SUGAR\SOURCE\REPOS\GAME_3.0\GAME_2.0\CONFIGURATION.CPP|C:\USERS\SUGAR\SOURCE\REPOS\GAME_3.0\GAME_2.0\GAMEPROCESS.CPP|C:\USERS\SUGAR\SOURCE\REPOS\GAME_3.0\GAME_2.0\HERO.CPP|C:\USERS\SUGAR\SOURCE\REPOS\GAME_3.0\GAME_2.0\MAIN.CPP|C:\USERS\SUGAR\SOURCE\REPOS\GAME_3.0\GAME_2.0\SAVE.CPP|C:\USERS\SUGAR\SOURCE\REPOS\GAME_3.0\GAME_2.0\SAVER.CPP
C:\USERS\SUGAR\SOURCE\REPOS\GAME_3.0\GAME_2.0\DEBUG\VC142.PDB
C:\USERS\SUGAR\SOURCE\REPOS\GAME_3.0\GAME_2.0\DEBUG\VC142.IDB
C:\USERS\SUGAR\SOURCE\REPOS\GAME_3.0\GAME_2.0\DEBUG\SAVE.OBJ
C:\USERS\SUGAR\SOURCE\REPOS\GAME_3.0\GAME_2.0\DEBUG\MAIN.OBJ
C:\USERS\SUGAR\SOURCE\REPOS\GAME_3.0\GAME_2.0\DEBUG\HERO.OBJ
C:\USERS\SUGAR\SOURCE\REPOS\GAME_3.0\GAME_2.0\DEBUG\GAMEPROCESS.OBJ
C:\USERS\SUGAR\SOURCE\REPOS\GAME_3.0\GAME_2.0\DEBUG\CONFIGURATION.OBJ
C:\USERS\SUGAR\SOURCE\REPOS\GAME_3.0\GAME_2.0\DEBUG\SAVER.OBJ
^C:\USERS\SUGAR\SOURCE\REPOS\GAME_3.0\GAME_2.0\CONFIGURATION.CPP|C:\USERS\SUGAR\SOURCE\REPOS\GAME_3.0\GAME_2.0\MAIN.CPP
C:\USERS\SUGAR\SOURCE\REPOS\GAME_3.0\GAME_2.0\DEBUG\VC142.PDB
C:\USERS\SUGAR\SOURCE\REPOS\GAME_3.0\GAME_2.0\DEBUG\VC142.IDB
C:\USERS\SUGAR\SOURCE\REPOS\GAME_3.0\GAME_2.0\DEBUG\MAIN.OBJ
C:\USERS\SUGAR\SOURCE\REPOS\GAME_3.0\GAME_2.0\DEBUG\CONFIGURATION.OBJ
^C:\USERS\SUGAR\SOURCE\REPOS\GAME_3.0\GAME_2.0\CONFIGURATION.CPP|C:\USERS\SUGAR\SOURCE\REPOS\GAME_3.0\GAME_2.0\GAMEPROCESS.CPP|C:\USERS\SUGAR\SOURCE\REPOS\GAME_3.0\GAME_2.0\MAIN.CPP
C:\USERS\SUGAR\SOURCE\REPOS\GAME_3.0\GAME_2.0\DEBUG\VC142.PDB
C:\USERS\SUGAR\SOURCE\REPOS\GAME_3.0\GAME_2.0\DEBUG\VC142.IDB
C:\USERS\SUGAR\SOURCE\REPOS\GAME_3.0\GAME_2.0\DEBUG\MAIN.OBJ
C:\USERS\SUGAR\SOURCE\REPOS\GAME_3.0\GAME_2.0\DEBUG\GAMEPROCESS.OBJ
C:\USERS\SUGAR\SOURCE\REPOS\GAME_3.0\GAME_2.0\DEBUG\CONFIGURATION.OBJ
^C:\USERS\SUGAR\SOURCE\REPOS\GAME_3.0\GAME_2.0\CONFIGURATION.CPP|C:\USERS\SUGAR\SOURCE\REPOS\GAME_3.0\GAME_2.0\DIALOGUE.CPP|C:\USERS\SUGAR\SOURCE\REPOS\GAME_3.0\GAME_2.0\DIALOGUEITERATOR.CPP|C:\USERS\SUGAR\SOURCE\REPOS\GAME_3.0\GAME_2.0\DIALOGUEPARSER.CPP|C:\USERS\SUGAR\SOURCE\REPOS\GAME_3.0\GAME_2.0\GAMEPROCESS.CPP|C:\USERS\SUGAR\SOURCE\REPOS\GAME_3.0\GAME_2.0\MAIN.CPP|C:\USERS\SUGAR\SOURCE\REPOS\GAME_3.0\GAME_2.0\PLOTMANAGER.CPP|C:\USERS\SUGAR\SOURCE\REPOS\GAME_3.0\GAME_2.0\SAVE.CPP|C:\USERS\SUGAR\SOURCE\REPOS\GAME_3.0\GAME_2.0\SAVER.CPP
C:\USERS\SUGAR\SOURCE\REPOS\GAME_3.0\GAME_2.0\DEBUG\VC142.PDB
C:\USERS\SUGAR\SOURCE\REPOS\GAME_3.0\GAME_2.0\DEBUG\VC142.IDB
C:\USERS\SUGAR\SOURCE\REPOS\GAME_3.0\GAME_2.0\DEBUG\SAVER.OBJ
C:\USERS\SUGAR\SOURCE\REPOS\GAME_3.0\GAME_2.0\DEBUG\SAVE.OBJ
C:\USERS\SUGAR\SOURCE\REPOS\GAME_3.0\GAME_2.0\DEBUG\PLOTMANAGER.OBJ
C:\USERS\SUGAR\SOURCE\REPOS\GAME_3.0\GAME_2.0\DEBUG\MAIN.OBJ
C:\USERS\SUGAR\SOURCE\REPOS\GAME_3.0\GAME_2.0\DEBUG\GAMEPROCESS.OBJ
C:\USERS\SUGAR\SOURCE\REPOS\GAME_3.0\GAME_2.0\DEBUG\DIALOGUEPARSER.OBJ
C:\USERS\SUGAR\SOURCE\REPOS\GAME_3.0\GAME_2.0\DEBUG\DIALOGUEITERATOR.OBJ
C:\USERS\SUGAR\SOURCE\REPOS\GAME_3.0\GAME_2.0\DEBUG\DIALOGUE.OBJ
C:\USERS\SUGAR\SOURCE\REPOS\GAME_3.0\GAME_2.0\DEBUG\CONFIGURATION.OBJ
^C:\USERS\SUGAR\SOURCE\REPOS\GAME_3.0\GAME_2.0\DIALOGUE.CPP
C:\USERS\SUGAR\SOURCE\REPOS\GAME_3.0\GAME_2.0\DEBUG\VC142.PDB
^C:\USERS\SUGAR\SOURCE\REPOS\GAME_3.0\GAME_2.0\DIALOGUEITERATOR.CPP
C:\USERS\SUGAR\SOURCE\REPOS\GAME_3.0\GAME_2.0\DEBUG\VC142.PDB
^C:\USERS\SUGAR\SOURCE\REPOS\GAME_3.0\GAME_2.0\DIALOGUEPARSER.CPP
C:\USERS\SUGAR\SOURCE\REPOS\GAME_3.0\GAME_2.0\DEBUG\VC142.PDB
^C:\USERS\SUGAR\SOURCE\REPOS\GAME_3.0\GAME_2.0\PLOTMANAGER.CPP
C:\USERS\SUGAR\SOURCE\REPOS\GAME_3.0\GAME_2.0\DEBUG\VC142.PDB
^C:\USERS\SUGAR\SOURCE\REPOS\GAME_3.0\GAME_2.0\CONFIGURATION.CPP|C:\USERS\SUGAR\SOURCE\REPOS\GAME_3.0\GAME_2.0\GAMEPROCESS.CPP|C:\USERS\SUGAR\SOURCE\REPOS\GAME_3.0\GAME_2.0\HERO.CPP|C:\USERS\SUGAR\SOURCE\REPOS\GAME_3.0\GAME_2.0\HEROMEDIATOR.CPP|C:\USERS\SUGAR\SOURCE\REPOS\GAME_3.0\GAME_2.0\MAIN.CPP|C:\USERS\SUGAR\SOURCE\REPOS\GAME_3.0\GAME_2.0\SAVE.CPP
C:\USERS\SUGAR\SOURCE\REPOS\GAME_3.0\GAME_2.0\DEBUG\VC142.PDB
C:\USERS\SUGAR\SOURCE\REPOS\GAME_3.0\GAME_2.0\DEBUG\VC142.IDB
C:\USERS\SUGAR\SOURCE\REPOS\GAME_3.0\GAME_2.0\DEBUG\SAVE.OBJ
C:\USERS\SUGAR\SOURCE\REPOS\GAME_3.0\GAME_2.0\DEBUG\MAIN.OBJ
C:\USERS\SUGAR\SOURCE\REPOS\GAME_3.0\GAME_2.0\DEBUG\HEROMEDIATOR.OBJ
C:\USERS\SUGAR\SOURCE\REPOS\GAME_3.0\GAME_2.0\DEBUG\HERO.OBJ
C:\USERS\SUGAR\SOURCE\REPOS\GAME_3.0\GAME_2.0\DEBUG\CONFIGURATION.OBJ
^C:\USERS\SUGAR\SOURCE\REPOS\GAME_3.0\GAME_2.0\CONFIGURATION.CPP
C:\USERS\SUGAR\SOURCE\REPOS\GAME_3.0\GAME_2.0\DEBUG\CONFIGURATION.OBJ
^C:\USERS\SUGAR\SOURCE\REPOS\GAME_3.0\GAME_2.0\MAIN.CPP
C:\USERS\SUGAR\SOURCE\REPOS\GAME_3.0\GAME_2.0\DEBUG\MAIN.OBJ
^C:\USERS\SUGAR\SOURCE\REPOS\GAME_4.0\GAME_2.0\PHRASENODE.CPP
C:\USERS\SUGAR\SOURCE\REPOS\GAME_4.0\GAME_2.0\DEBUG\VC142.PDB
^C:\USERS\SUGAR\SOURCE\REPOS\GAME_4.0\GAME_2.0\GAMEPROCESS.CPP|C:\USERS\SUGAR\SOURCE\REPOS\GAME_4.0\GAME_2.0\HERO.CPP|C:\USERS\SUGAR\SOURCE\REPOS\GAME_4.0\GAME_2.0\LEVEL.CPP|C:\USERS\SUGAR\SOURCE\REPOS\GAME_4.0\GAME_2.0\PLOTMANAGER.CPP
C:\USERS\SUGAR\SOURCE\REPOS\GAME_4.0\GAME_2.0\DEBUG\VC142.PDB
C:\USERS\SUGAR\SOURCE\REPOS\GAME_4.0\GAME_2.0\DEBUG\VC142.IDB
C:\USERS\SUGAR\SOURCE\REPOS\GAME_4.0\GAME_2.0\DEBUG\HERO.OBJ
C:\USERS\SUGAR\SOURCE\REPOS\GAME_4.0\GAME_2.0\DEBUG\GAMEPROCESS.OBJ
^C:\USERS\SUGAR\SOURCE\REPOS\GAME_4.0\GAME_2.0\CONFIGURATION.CPP|C:\USERS\SUGAR\SOURCE\REPOS\GAME_4.0\GAME_2.0\GAMEPROCESS.CPP|C:\USERS\SUGAR\SOURCE\REPOS\GAME_4.0\GAME_2.0\HERO.CPP|C:\USERS\SUGAR\SOURCE\REPOS\GAME_4.0\GAME_2.0\HEROMEDIATOR.CPP|C:\USERS\SUGAR\SOURCE\REPOS\GAME_4.0\GAME_2.0\ISERIALIZABLE.CPP|C:\USERS\SUGAR\SOURCE\REPOS\GAME_4.0\GAME_2.0\MAIN.CPP|C:\USERS\SUGAR\SOURCE\REPOS\GAME_4.0\GAME_2.0\SAVE.CPP
C:\USERS\SUGAR\SOURCE\REPOS\GAME_4.0\GAME_2.0\DEBUG\VC142.PDB
C:\USERS\SUGAR\SOURCE\REPOS\GAME_4.0\GAME_2.0\DEBUG\VC142.IDB
C:\USERS\SUGAR\SOURCE\REPOS\GAME_4.0\GAME_2.0\DEBUG\SAVE.OBJ
C:\USERS\SUGAR\SOURCE\REPOS\GAME_4.0\GAME_2.0\DEBUG\MAIN.OBJ
C:\USERS\SUGAR\SOURCE\REPOS\GAME_4.0\GAME_2.0\DEBUG\ISERIALIZABLE.OBJ
C:\USERS\SUGAR\SOURCE\REPOS\GAME_4.0\GAME_2.0\DEBUG\HEROMEDIATOR.OBJ
C:\USERS\SUGAR\SOURCE\REPOS\GAME_4.0\GAME_2.0\DEBUG\GAMEPROCESS.OBJ
^C:\USERS\SUGAR\SOURCE\REPOS\GAME_4.0\GAME_2.0\ISERIALIZABLE.CPP
C:\USERS\SUGAR\SOURCE\REPOS\GAME_4.0\GAME_2.0\DEBUG\ISERIALIZABLE.OBJ
^C:\USERS\SUGAR\SOURCE\REPOS\GAME_4.0\GAME_2.0\CONFIGURATION.CPP|C:\USERS\SUGAR\SOURCE\REPOS\GAME_4.0\GAME_2.0\HERO.CPP|C:\USERS\SUGAR\SOURCE\REPOS\GAME_4.0\GAME_2.0\HEROMEDIATOR.CPP|C:\USERS\SUGAR\SOURCE\REPOS\GAME_4.0\GAME_2.0\SAVE.CPP
C:\USERS\SUGAR\SOURCE\REPOS\GAME_4.0\GAME_2.0\DEBUG\VC142.PDB
C:\USERS\SUGAR\SOURCE\REPOS\GAME_4.0\GAME_2.0\DEBUG\VC142.IDB
C:\USERS\SUGAR\SOURCE\REPOS\GAME_4.0\GAME_2.0\DEBUG\SAVE.OBJ
C:\USERS\SUGAR\SOURCE\REPOS\GAME_4.0\GAME_2.0\DEBUG\HEROMEDIATOR.OBJ
C:\USERS\SUGAR\SOURCE\REPOS\GAME_4.0\GAME_2.0\DEBUG\HERO.OBJ
^C:\USERS\SUGAR\SOURCE\REPOS\GAME_4.0\GAME_2.0\CONFIGURATION.CPP|C:\USERS\SUGAR\SOURCE\REPOS\GAME_4.0\GAME_2.0\GAMEPROCESS.CPP|C:\USERS\SUGAR\SOURCE\REPOS\GAME_4.0\GAME_2.0\MAIN.CPP|C:\USERS\SUGAR\SOURCE\REPOS\GAME_4.0\GAME_2.0\SAVE.CPP
C:\USERS\SUGAR\SOURCE\REPOS\GAME_4.0\GAME_2.0\DEBUG\VC142.PDB
C:\USERS\SUGAR\SOURCE\REPOS\GAME_4.0\GAME_2.0\DEBUG\VC142.IDB
C:\USERS\SUGAR\SOURCE\REPOS\GAME_4.0\GAME_2.0\DEBUG\SAVE.OBJ
C:\USERS\SUGAR\SOURCE\REPOS\GAME_4.0\GAME_2.0\DEBUG\MAIN.OBJ
C:\USERS\SUGAR\SOURCE\REPOS\GAME_4.0\GAME_2.0\DEBUG\CONFIGURATION.OBJ
^C:\USERS\SUGAR\SOURCE\REPOS\GAME_4.0\GAME_2.0\GAMEPROCESS.CPP|C:\USERS\SUGAR\SOURCE\REPOS\GAME_4.0\GAME_2.0\SAVE.CPP
C:\USERS\SUGAR\SOURCE\REPOS\GAME_4.0\GAME_2.0\DEBUG\VC142.PDB
C:\USERS\SUGAR\SOURCE\REPOS\GAME_4.0\GAME_2.0\DEBUG\VC142.IDB
C:\USERS\SUGAR\SOURCE\REPOS\GAME_4.0\GAME_2.0\DEBUG\SAVE.OBJ
^C:\USERS\SUGAR\SOURCE\REPOS\GAME_4.0\GAME_2.0\CONFIGURATION.CPP|C:\USERS\SUGAR\SOURCE\REPOS\GAME_4.0\GAME_2.0\HERO.CPP
C:\USERS\SUGAR\SOURCE\REPOS\GAME_4.0\GAME_2.0\DEBUG\VC142.PDB
C:\USERS\SUGAR\SOURCE\REPOS\GAME_4.0\GAME_2.0\DEBUG\VC142.IDB
C:\USERS\SUGAR\SOURCE\REPOS\GAME_4.0\GAME_2.0\DEBUG\HERO.OBJ
C:\USERS\SUGAR\SOURCE\REPOS\GAME_4.0\GAME_2.0\DEBUG\CONFIGURATION.OBJ
^C:\USERS\SUGAR\SOURCE\REPOS\GAME_4.0\GAME_2.0\CONFIGURATION.CPP|C:\USERS\SUGAR\SOURCE\REPOS\GAME_4.0\GAME_2.0\MAIN.CPP
C:\USERS\SUGAR\SOURCE\REPOS\GAME_4.0\GAME_2.0\DEBUG\VC142.PDB
C:\USERS\SUGAR\SOURCE\REPOS\GAME_4.0\GAME_2.0\DEBUG\VC142.IDB
C:\USERS\SUGAR\SOURCE\REPOS\GAME_4.0\GAME_2.0\DEBUG\MAIN.OBJ
C:\USERS\SUGAR\SOURCE\REPOS\GAME_4.0\GAME_2.0\DEBUG\CONFIGURATION.OBJ
^C:\USERS\SUGAR\SOURCE\REPOS\GAME_4.0\GAME_2.0\GAMEPROCESS.CPP|C:\USERS\SUGAR\SOURCE\REPOS\GAME_4.0\GAME_2.0\HERO.CPP
C:\USERS\SUGAR\SOURCE\REPOS\GAME_4.0\GAME_2.0\DEBUG\VC142.PDB
C:\USERS\SUGAR\SOURCE\REPOS\GAME_4.0\GAME_2.0\DEBUG\VC142.IDB
C:\USERS\SUGAR\SOURCE\REPOS\GAME_4.0\GAME_2.0\DEBUG\HERO.OBJ
C:\USERS\SUGAR\SOURCE\REPOS\GAME_4.0\GAME_2.0\DEBUG\GAMEPROCESS.OBJ
^C:\USERS\SUGAR\SOURCE\REPOS\GAME_4.0\GAME_2.0\HERO.CPP
C:\USERS\SUGAR\SOURCE\REPOS\GAME_4.0\GAME_2.0\DEBUG\VC142.PDB
^C:\USERS\SUGAR\SOURCE\REPOS\GAME_4.0\GAME_2.0\GAMEPROCESSMEDIATOR.CPP
C:\USERS\SUGAR\SOURCE\REPOS\GAME_4.0\GAME_2.0\DEBUG\VC142.PDB
C:\USERS\SUGAR\SOURCE\REPOS\GAME_4.0\GAME_2.0\DEBUG\VC142.IDB
C:\USERS\SUGAR\SOURCE\REPOS\GAME_4.0\GAME_2.0\DEBUG\GAMEPROCESSMEDIATOR.OBJ
^C:\USERS\SUGAR\SOURCE\REPOS\GAME_4.0\GAME_2.0\GAMEPROCESS.CPP|C:\USERS\SUGAR\SOURCE\REPOS\GAME_4.0\GAME_2.0\MAIN.CPP
C:\USERS\SUGAR\SOURCE\REPOS\GAME_4.0\GAME_2.0\DEBUG\VC142.PDB
C:\USERS\SUGAR\SOURCE\REPOS\GAME_4.0\GAME_2.0\DEBUG\VC142.IDB
C:\USERS\SUGAR\SOURCE\REPOS\GAME_4.0\GAME_2.0\DEBUG\MAIN.OBJ
C:\USERS\SUGAR\SOURCE\REPOS\GAME_4.0\GAME_2.0\DEBUG\GAMEPROCESS.OBJ
^C:\USERS\SUGAR\SOURCE\REPOS\GAME_4.0\GAME_2.0\CONFIGURATION.CPP|C:\USERS\SUGAR\SOURCE\REPOS\GAME_4.0\GAME_2.0\GAMEPROCESS.CPP|C:\USERS\SUGAR\SOURCE\REPOS\GAME_4.0\GAME_2.0\HEROMEDIATOR.CPP|C:\USERS\SUGAR\SOURCE\REPOS\GAME_4.0\GAME_2.0\MAIN.CPP|C:\USERS\SUGAR\SOURCE\REPOS\GAME_4.0\GAME_2.0\SAVE.CPP
C:\USERS\SUGAR\SOURCE\REPOS\GAME_4.0\GAME_2.0\DEBUG\VC142.PDB
C:\USERS\SUGAR\SOURCE\REPOS\GAME_4.0\GAME_2.0\DEBUG\VC142.IDB
C:\USERS\SUGAR\SOURCE\REPOS\GAME_4.0\GAME_2.0\DEBUG\GAMEPROCESS.OBJ
^C:\USERS\SUGAR\SOURCE\REPOS\GAME_4.0\GAME_2.0\CONFIGURATION.CPP|C:\USERS\SUGAR\SOURCE\REPOS\GAME_4.0\GAME_2.0\DIALOGUE.CPP|C:\USERS\SUGAR\SOURCE\REPOS\GAME_4.0\GAME_2.0\DIALOGUEITERATOR.CPP|C:\USERS\SUGAR\SOURCE\REPOS\GAME_4.0\GAME_2.0\DIALOGUEPARSER.CPP|C:\USERS\SUGAR\SOURCE\REPOS\GAME_4.0\GAME_2.0\GAMEPROCESS.CPP|C:\USERS\SUGAR\SOURCE\REPOS\GAME_4.0\GAME_2.0\HEROMEDIATOR.CPP|C:\USERS\SUGAR\SOURCE\REPOS\GAME_4.0\GAME_2.0\MAIN.CPP|C:\USERS\SUGAR\SOURCE\REPOS\GAME_4.0\GAME_2.0\SAVE.CPP
C:\USERS\SUGAR\SOURCE\REPOS\GAME_4.0\GAME_2.0\DEBUG\VC142.PDB
C:\USERS\SUGAR\SOURCE\REPOS\GAME_4.0\GAME_2.0\DEBUG\VC142.IDB
C:\USERS\SUGAR\SOURCE\REPOS\GAME_4.0\GAME_2.0\DEBUG\HEROMEDIATOR.OBJ
^C:\USERS\SUGAR\SOURCE\REPOS\GAME_4.0\GAME_2.0\HEROMEDIATOR.CPP
C:\USERS\SUGAR\SOURCE\REPOS\GAME_4.0\GAME_2.0\DEBUG\HEROMEDIATOR.OBJ
^C:\USERS\SUGAR\SOURCE\REPOS\GAME_4.0\GAME_2.0\CONFIGURATION.CPP|C:\USERS\SUGAR\SOURCE\REPOS\GAME_4.0\GAME_2.0\DIALOGUE.CPP|C:\USERS\SUGAR\SOURCE\REPOS\GAME_4.0\GAME_2.0\DIALOGUEITERATOR.CPP|C:\USERS\SUGAR\SOURCE\REPOS\GAME_4.0\GAME_2.0\DIALOGUEPARSER.CPP|C:\USERS\SUGAR\SOURCE\REPOS\GAME_4.0\GAME_2.0\GAMEPROCESS.CPP|C:\USERS\SUGAR\SOURCE\REPOS\GAME_4.0\GAME_2.0\MAIN.CPP|C:\USERS\SUGAR\SOURCE\REPOS\GAME_4.0\GAME_2.0\SAVE.CPP
C:\USERS\SUGAR\SOURCE\REPOS\GAME_4.0\GAME_2.0\DEBUG\VC142.PDB
C:\USERS\SUGAR\SOURCE\REPOS\GAME_4.0\GAME_2.0\DEBUG\VC142.IDB
C:\USERS\SUGAR\SOURCE\REPOS\GAME_4.0\GAME_2.0\DEBUG\SAVE.OBJ
C:\USERS\SUGAR\SOURCE\REPOS\GAME_4.0\GAME_2.0\DEBUG\MAIN.OBJ
C:\USERS\SUGAR\SOURCE\REPOS\GAME_4.0\GAME_2.0\DEBUG\DIALOGUEPARSER.OBJ
C:\USERS\SUGAR\SOURCE\REPOS\GAME_4.0\GAME_2.0\DEBUG\DIALOGUEITERATOR.OBJ
C:\USERS\SUGAR\SOURCE\REPOS\GAME_4.0\GAME_2.0\DEBUG\DIALOGUE.OBJ
C:\USERS\SUGAR\SOURCE\REPOS\GAME_4.0\GAME_2.0\DEBUG\CONFIGURATION.OBJ
^C:\USERS\SUGAR\SOURCE\REPOS\GAME_4.0\GAME_2.0\CONFIGURATION.CPP
C:\USERS\SUGAR\SOURCE\REPOS\GAME_4.0\GAME_2.0\DEBUG\CONFIGURATION.OBJ
^C:\USERS\SUGAR\SOURCE\REPOS\GAME_4.0\GAME_2.0\DIALOGUE.CPP
C:\USERS\SUGAR\SOURCE\REPOS\GAME_4.0\GAME_2.0\DEBUG\DIALOGUE.OBJ
^C:\USERS\SUGAR\SOURCE\REPOS\GAME_4.0\GAME_2.0\DIALOGUEITERATOR.CPP
C:\USERS\SUGAR\SOURCE\REPOS\GAME_4.0\GAME_2.0\DEBUG\DIALOGUEITERATOR.OBJ
^C:\USERS\SUGAR\SOURCE\REPOS\GAME_4.0\GAME_2.0\DIALOGUEPARSER.CPP
C:\USERS\SUGAR\SOURCE\REPOS\GAME_4.0\GAME_2.0\DEBUG\DIALOGUEPARSER.OBJ
^C:\USERS\SUGAR\SOURCE\REPOS\GAME_4.0\GAME_2.0\GAMEPROCESS.CPP|C:\USERS\SUGAR\SOURCE\REPOS\GAME_4.0\GAME_2.0\MAIN.CPP|C:\USERS\SUGAR\SOURCE\REPOS\GAME_4.0\GAME_2.0\SAVE.CPP
C:\USERS\SUGAR\SOURCE\REPOS\GAME_4.0\GAME_2.0\DEBUG\VC142.PDB
C:\USERS\SUGAR\SOURCE\REPOS\GAME_4.0\GAME_2.0\DEBUG\VC142.IDB
C:\USERS\SUGAR\SOURCE\REPOS\GAME_4.0\GAME_2.0\DEBUG\SAVE.OBJ
C:\USERS\SUGAR\SOURCE\REPOS\GAME_4.0\GAME_2.0\DEBUG\MAIN.OBJ
C:\USERS\SUGAR\SOURCE\REPOS\GAME_4.0\GAME_2.0\DEBUG\GAMEPROCESS.OBJ
^C:\USERS\SUGAR\SOURCE\REPOS\GAME_4.0\GAME_2.0\GAMEPROCESS.CPP
C:\USERS\SUGAR\SOURCE\REPOS\GAME_4.0\GAME_2.0\DEBUG\VC142.PDB
^C:\USERS\SUGAR\SOURCE\REPOS\GAME_4.0\GAME_2.0\MAIN.CPP
C:\USERS\SUGAR\SOURCE\REPOS\GAME_4.0\GAME_2.0\DEBUG\VC142.PDB
^C:\USERS\SUGAR\SOURCE\REPOS\GAME_4.0\GAME_2.0\SAVE.CPP
C:\USERS\SUGAR\SOURCE\REPOS\GAME_4.0\GAME_2.0\DEBUG\VC142.PDB
